NTOLab11
…
The regular expressions I used to find most variations of Ryan spellings (^R[yi]an$)|(^R[yi]ann$) found when a name was Rian, Riann, Ryan, or Ryann. I was satisfied with this regex becuase the proportion of those names was very close to the proportion of names starting with Rya. This is probably because not a lot of names start with Rya and are not spelled Ryan or Ryann.

My name now is not as popular as it was when I was born, but its popularity ahd been going down since 1985 so I am not that shaken.

My name is slightly less popular (.00465 compared to .00470) so I am not that tilted. However, it is very very close and could be the result of my regex not finding all variations of the name Ryan, or I not knowing all the variations. In any case, it should be noted that as the proportions are so close we can probably say that there is no significant difference in the popularity of my name and other names that start with Rya.

Team Sections

Ariel / Rachel Regex

## # A tibble: 58 x 5
##     year sex   name         n       prop
##    <dbl> <chr> <chr>    <int>      <dbl>
##  1  1973 F     Ariel       43 0.0000277 
##  2  1973 F     Ariella     14 0.00000901
##  3  1973 F     Arielle      9 0.00000579
##  4  1973 F     Rachal      24 0.0000154 
##  5  1973 F     Rachel    6106 0.00393   
##  6  1973 F     Rachele     95 0.0000611 
##  7  1973 F     Rachell     53 0.0000341 
##  8  1973 F     Rachella     6 0.00000386
##  9  1973 F     Rachelle   883 0.000568  
## 10  1988 F     Arial       12 0.00000624
## #  with 48 more rows
…
